<?xml version="1.0" encoding="UTF-8" standalone="no"?>
<svg
   xmlns:dc="http://purl.org/dc/elements/1.1/"
   xmlns:cc="http://creativecommons.org/ns#"
   xmlns:rdf="http://www.w3.org/1999/02/22-rdf-syntax-ns#"
   xmlns:svg="http://www.w3.org/2000/svg"
   xmlns="http://www.w3.org/2000/svg"
   xmlns:sodipodi="http://sodipodi.sourceforge.net/DTD/sodipodi-0.dtd"
   xmlns:inkscape="http://www.inkscape.org/namespaces/inkscape"
   viewBox="0 0 199.7 199.7"
   version="1.1"
   id="svg923"
   sodipodi:docname="favicon.svg"
   inkscape:version="1.0 (4035a4fb49, 2020-05-01)"
   inkscape:export-filename="/home/user/hypno-guide/theme/favicon.png"
   inkscape:export-xdpi="94.221336"
   inkscape:export-ydpi="94.221336"
   width="199.7"
   height="199.7">
  <metadata
     id="metadata929">
    <rdf:RDF>
      <cc:Work
         rdf:about="">
        <dc:format>image/svg+xml</dc:format>
        <dc:type
           rdf:resource="http://purl.org/dc/dcmitype/StillImage" />
        <dc:title></dc:title>
      </cc:Work>
    </rdf:RDF>
  </metadata>
  <defs
     id="defs927" />
  <sodipodi:namedview
     inkscape:document-rotation="0"
     pagecolor="#ffffff"
     bordercolor="#666666"
     borderopacity="1"
     objecttolerance="10"
     gridtolerance="10"
     guidetolerance="10"
     inkscape:pageopacity="0"
     inkscape:pageshadow="2"
     inkscape:window-width="1362"
     inkscape:window-height="729"
     id="namedview925"
     showgrid="false"
     inkscape:zoom="8.1689644"
     inkscape:cx="209.73563"
     inkscape:cy="53.065545"
     inkscape:window-x="2"
     inkscape:window-y="18"
     inkscape:window-maximized="1"
     inkscape:current-layer="svg923"
     inkscape:snap-path-clip="false"
     inkscape:snap-path-mask="false"
     inkscape:snap-tangential="false"
     inkscape:snap-perpendicular="false" />
  <style
     id="style919">
    @media (prefers-color-scheme: dark) {
      svg { fill: white; }
    }
  </style>
  <path
     sodipodi:nodetypes="cscccsssscccsssscccc"
     style="fill:#ffffff;fill-opacity:1;stroke:#000000;stroke-width:0.0346241;stroke-miterlimit:4;stroke-dasharray:none;stroke-opacity:1"
     d="M 25.643031,180.64282 C 19.271243,179.89294 12.120066,177.93724 10.333713,173.88881 8.8767616,170.5869 9.1218704,157.09614 9.1218704,157.09614 l 64.1336686,0.35261 v 0 c 50.785551,-0.30583 48.645211,0.30638 50.785551,-0.30583 3.18382,-0.91068 7.54286,-0.66681 9.16923,-2.35937 1.63674,-1.70336 4.25341,-9.59634 5.99951,-14.29225 1.62691,-4.37537 36.81076,-112.978176 38.91811,-113.730702 l 2.88264,-1.029383 4.27155,9.858519 4.27156,9.858518 1.88757,2.860419 c 0.95215,1.442876 -0.15675,21.337152 -13.57953,65.612599 -10.03036,33.08545 -20.52515,57.62295 -20.78265,58.12484 -0.74287,1.44793 -2.43173,6.18254 -4.59534,6.9529 l -6.11014,2.17556 -59.380262,0.0435 c -31.706983,0.024 -50.443728,2.71403 -49.231886,-1.44089 z"
     id="path1143" />
  <path
     d="m 189.5,44.8 c 0.2,2.8 0,5.1 -0.6,6.8 L 153,170 c -0.6,2.1 -2,3.7 -4.2,5 -2.2,1.2 -4.4,1.9 -6.7,1.9 H 31.4 c -9.6,0 -15.3,-2.8 -17.3,-8.4 -0.8,-2.2 -0.8,-3.9 0.1,-5.2 0.9,-1.2 2.4,-1.8 4.6,-1.8 H 123 c 7.4,0 12.6,-1.4 15.4,-4.1 2.8,-2.7 5.7,-8.9 8.6,-18.4 L 179.9,30.4 c 1.8,-5.9 1,-11.1 -2.2,-15.6 C 174.5,10.3 169.9,8 164,8 H 72.7 c -1,0 -3.1,0.4 -6.1,1.1 L 66.7,8.7 C 64.5,8.2 62.6,8 61,8.1 c -1.6,0.1 -3,0.5 -4.3,1.4 -1.3,0.9 -2.4,1.8 -3.2,2.8 -0.8,1 -1.5,2.2 -2.3,3.8 -0.8,1.6 -1.4,3 -1.9,4.3 -0.5,1.3 -1.1,2.7 -1.8,4.2 -0.7,1.5 -1.3,2.7 -2,3.7 -0.5,0.6 -1.2,1.5 -2,2.5 -0.8,1 -1.6,2 -2.2,2.8 -0.6,0.8 -0.9,1.5 -1.1,2.2 -0.2,0.7 -0.1,1.8 0.2,3.2 0.3,1.4 0.4,2.4 0.4,3.1 -0.3,3 -1.4,6.9 -3.3,11.6 -1.9,4.7 -3.6,8.1 -5.1,10.1 -0.3,0.4 -1.2,1.3 -2.6,2.7 -1.4,1.4 -2.3,2.6 -2.6,3.7 -0.3,0.4 -0.3,1.5 -0.1,3.4 0.3,1.8 0.4,3.1 0.3,3.8 -0.3,2.7 -1.3,6.3 -3,10.8 -1.7,4.5 -3.4,8.2 -5,11 -0.2,0.5 -0.9,1.4 -2,2.8 -1.1,1.4 -1.8,2.5 -2,3.4 -0.2,0.6 -0.1,1.8 0.1,3.4 0.2,1.6 0.2,2.8 -0.1,3.6 -0.6,3 -1.8,6.7 -3.6,11 -1.8,4.3 -3.6,7.9 -5.4,11 -0.5,0.8 -1.1,1.7 -2,2.8 -0.8,1.1 -1.5,2 -2,2.8 -0.5,0.8 -0.8,1.6 -1,2.5 -0.1,0.5 0,1.3 0.4,2.3 0.3,1.1 0.4,1.9 0.4,2.6 -0.1,1.1 -0.2,2.6 -0.5,4.4 -0.2,1.8 -0.4,2.9 -0.4,3.2 -1.8,4.8 -1.7,9.9 0.2,15.2 2.2,6.2 6.2,11.5 11.9,15.8 5.7,4.3 11.7,6.4 17.8,6.4 h 110.7 c 5.2,0 10.1,-1.7 14.7,-5.2 4.6,-3.5 7.7,-7.8 9.2,-12.9 l 33,-108.6 c 1.8,-5.8 1,-10.9 -2.2,-15.5 -1.7,-2.5 -4,-4.2 -7.1,-5.4 z"
     id="path921"
     sodipodi:nodetypes="ccccssccsssccsssccsssssscsssscssscccscscscsccsccccccsssscccc" />
  <g
     id="page1"
     transform="matrix(0.37143361,0,-0.10170818,0.37143361,38.059763,5.1445319)">
    <g
       id="g1109"
       transform="matrix(0.996264,0,0,0.996264,216.409,213.858)">
      <path
         id="path1107"
         fill="#000000"
         d="M 160.6,0 C 160.6,-88.6969 88.6969,-160.6 0,-160.6 -88.6969,-160.6 -160.6,-88.6969 -160.6,0 -160.6,88.6969 -88.6969,160.6 0,160.6 88.6969,160.6 160.6,88.6969 160.6,0 Z" />
    </g>
    <g
       id="g1113"
       transform="matrix(0.996264,0,0,0.996264,216.409,213.858)">
      <path
         id="path1111"
         fill="#ffffff"
         d="m -131.905,91.6404 c -2.246,-3.8687 -4.331,-7.8313 -6.247,-11.8784 -3.958,-8.3618 -7.182,-17.0524 -9.624,-25.9761 -2.406,-8.7969 -4.043,-17.7868 -4.88,-26.8685 -0.825,-8.9518 -0.87,-17.95871 -0.123,-26.9174 0.737,-8.82961 2.24,-17.5787 4.504,-26.1449 2.231,-8.4419 5.192,-16.674 8.86,-24.598 3.614,-7.8081 7.901,-15.2873 12.821,-22.3462 4.847,-6.9548 10.291,-13.4751 16.276,-19.4788 5.896,-5.9146 12.2964,-11.3051 19.1334,-16.1021 6.7349,-4.724 13.8683,-8.854 21.3236,-12.333 7.343,-3.426 14.9704,-6.207 22.7983,-8.301 7.7091,-2.062 15.5832,-3.449 23.5337,-4.136 7.8289,-0.676 15.70206,-0.67 23.529,0.03 7.70632,0.688 15.3384,2.045 22.8067,4.067 7.3524,1.99 14.5179,4.615 21.4107,7.857 6.7849,3.19 13.2796,6.965 19.4043,11.29 6.028,4.257 11.6746,9.03 16.868,14.2721 5.1109,5.1591 9.7635,10.7532 13.8964,16.7245 4.0667,5.8757 7.6149,12.0941 10.5939,18.589 2.932,6.3898 5.302,13.0228 7.074,19.826 1.743,6.6924 2.901,13.524 3.45,20.4179 0.541,6.7806 0.49,13.59558 -0.161,20.3665 -0.64,6.65875 -1.858,13.2494 -3.65,19.6944 -1.762,6.3374 -4.072,12.5096 -6.913,18.4424 -2.793,5.8328 -6.0877,11.4118 -9.8554,16.668 -3.7036,5.1667 -7.8499,10.0017 -12.3983,14.443 -4.4704,4.3652 -9.3123,8.3333 -14.476,11.8514 -5.0744,3.4573 -10.4401,6.4667 -16.04,8.9853 C 46.5081,92.5592 40.8007,94.5506 34.951,96.027 29.2041,97.4774 23.3418,98.4251 17.4299,98.8501 11.623,99.2675 5.79063,99.179 0,98.5763 c -5.68692,-0.5919 -11.3118,-1.6775 -16.808,-3.2532 -5.397,-1.5472 -10.6493,-3.5611 -15.6932,-6.0269 -4.9519,-2.4208 -9.6839,-5.268 -14.137,-8.5164 -4.3712,-3.1886 -8.4568,-6.7516 -12.2039,-10.6546 -3.6775,-3.8304 -7.0148,-7.9738 -9.9668,-12.3877 -2.8965,-4.3312 -5.4108,-8.9063 -7.5063,-13.6769 -2.0558,-4.6802 -3.7005,-9.5307 -4.9071,-14.4981 C -82.4057,24.69 -83.163,19.7236 -83.4769,14.7192 -83.7848,9.81149 -83.665,4.88606 -83.1105,0 c 0.5437,-4.79082 1.5033,-9.52544 2.8759,-14.1475 1.3456,-4.5311 3.083,-8.9367 5.1998,-13.1629 2.0748,-4.1422 4.5063,-8.0961 7.2732,-11.8118 2.7114,-3.641 5.7347,-7.0394 9.0409,-10.1503 3.2392,-3.0478 6.7376,-5.808 10.4599,-8.2425 3.6459,-2.3845 7.4927,-4.4473 11.4995,-6.1575 3.9238,-1.6748 7.9861,-3.0049 12.1424,-3.9674 4.0693,-0.9425 8.213,-1.529 12.3845,-1.7449 4.08316,-0.2115 8.17719,-0.0671 12.2344,0.4392 3.97045,0.4955 7.89042,1.3357 11.7129,2.5183 3.7399,1.1572 7.3721,2.6377 10.8517,4.4316 3.4036,1.7546 6.6481,3.8024 9.6919,6.1258 2.9766,2.2721 5.7498,4.7991 8.2826,7.5573 2.4761,2.6966 4.7129,5.6037 6.6786,8.6923 1.9212,3.0187 3.576,6.1992 4.9387,9.5078 1.3315,3.233 2.3791,6.5759 3.1236,9.9922 0.7273,3.3373 1.1627,6.7317 1.2939,10.1448 0.1281,3.33321 -0.0343,6.67141 -0.4924,9.9755 -0.4472,3.22583 -1.1746,6.40673 -2.1805,9.5042 -0.9818,3.0232 -2.2251,5.9553 -3.7219,8.7595 -1.4604,2.7362 -3.1565,5.34 -5.0743,7.7776 -1.8706,2.3777 -3.9449,4.588 -6.2037,6.6006 -2.2027,1.9625 -4.5722,3.7294 -7.0851,5.2749 -2.4496,1.5066 -5.0259,2.7969 -7.7019,3.85 -2.6077,1.0263 -5.3001,1.8234 -8.0475,2.3757 -2.6764,0.5381 -5.3948,0.8419 -8.12413,0.9015 C 5.28465,45.102 2.62668,44.9282 0,44.5183 c -2.55694,-0.399 -5.07436,-1.0202 -7.52137,-1.8625 -2.38114,-0.8196 -4.68643,-1.8454 -6.88633,-3.0709 -2.1399,-1.1921 -4.1719,-2.5686 -6.0688,-4.1186 -1.8444,-1.507 -3.5539,-3.1722 -5.1043,-4.9803 -1.5069,-1.7573 -2.8577,-3.6429 -4.0317,-5.6381 -1.1406,-1.9384 -2.11,-3.9728 -2.8914,-6.0818 -0.7588,-2.0481 -1.3374,-4.1586 -1.7235,-6.3083 -0.3748,-2.0867 -0.5667,-4.20234 -0.5678,-6.32246 C -34.7963,4.07831 -34.6177,2.02499 -34.256,0 c 0.3508,-1.9638 0.8725,-3.89332 1.5643,-5.76443 0.6706,-1.81368 1.4984,-3.56541 2.4786,-5.23227 0.9496,-1.6148 2.0387,-3.1437 3.2587,-4.5654 1.1813,-1.3767 2.4808,-2.6476 3.8869,-3.7938 1.3608,-1.1094 2.8161,-2.0976 4.3516,-2.9488 1.4853,-0.8234 3.0398,-1.5152 4.6473,-2.0628 1.554,-0.5292 3.1515,-0.9215 4.77471,-1.1673 1.56821,-0.2374 3.15432,-0.337 4.7398,-0.2927 1.53083,0.0427 3.05509,0.2194 4.55409,0.533 1.44641,0.3026 2.86363,0.7313 4.23338,1.2858 1.32082,0.5347 2.59232,1.1842 3.79716,1.945 1.16099,0.7331 2.25556,1.5667 3.26766,2.4946 0.9746,0.8935 1.869,1.8709 2.669,2.9236 0.7698,1.0129 1.4492,2.0915 2.0263,3.2254 0.5548,1.0901 1.0127,2.227 1.3641,3.3987 0.3377,1.12552 0.5757,2.27869 0.7069,3.44647 0.1259,1.1209 0.153,2.25082 0.0765,3.37619 C 18.0676,-2.11949 17.8993,-1.04869 17.6339,0 17.3796,1.00479 17.0371,1.9853 16.6068,2.92823 16.1949,3.83082 15.7041,4.69537 15.1367,5.50932 14.5942,6.28767 13.984,7.01663 13.3103,7.68471 12.6668,8.32289 11.968,8.90295 11.22,9.41473 10.5063,9.90307 9.75067,10.3273 8.96051,10.6787 8.20743,11.0137 7.42602,11.2812 6.62475,11.4744 5.86201,11.6583 5.08435,11.7741 4.3009,11.8166 3.55608,11.8571 2.80905,11.8311 2.06928,11.7355 1.36695,11.6447 0.674027,11.4914 0,11.2741 -0.638999,11.0681 -1.25839,10.8054 -1.84897,10.486 -2.40801,10.1837 -2.93891,9.83189 -3.43303,9.43216 -3.9,9.0544 -4.33217,8.6354 -4.72164,8.17812 -5.08909,7.74669 -5.41699,7.28298 -5.69839,6.79108 -5.9634,6.32782 -6.18605,5.84149 -6.36048,5.33708 -6.52444,4.86296 -6.64508,4.37488 -6.71774,3.87849 -6.7859,3.41287 -6.81152,2.94193 -6.79116,2.47178 -6.7721,2.03173 -6.71282,1.59428 -6.61109,1.16571 -6.5161,0.765535 -6.38449,0.374864 -6.21522,0 c 0.15766,-0.349161 0.34732,-0.683057 0.5689,-0.995598 0.20584,-0.290332 0.4383,-0.560912 0.69632,-0.806052 0.23899,-0.22706 0.49881,-0.43124 0.77749,-0.60735 0.25732,-0.16262 0.52953,-0.30054 0.81388,-0.40923 0.26168,-0.10002 0.53241,-0.1748 0.80881,-0.22053 0.25346,-0.04194 0.51045,-0.05923 0.76716,-0.0489 0.2345,0.00944 0.46757,0.04191 0.69508,0.09955 0.206968,0.05243 0.408252,0.12545 0.599542,0.22031 0.173266,0.08592 0.337386,0.18933 0.488038,0.31062 0.135837,0.10937 0.25994,0.23267 0.36812,0.36947 0.097089,0.12277 0.180751,0.25568 0.247078,0.39747 0.059256,0.12666 0.104274,0.2596 0.131592,0.39676 0.024304,0.12203 0.034402,0.24654 0.027448,0.370779 C 0.76807,-0.812526 0.74851,-0.70342 0.713555,-0.598744 0.682598,-0.506041 0.639803,-0.417618 0.584151,-0.33726 0.534781,-0.265972 0.47576,-0.201764 0.40747,-0.148307 0.346469,-0.100556 0.27871,-0.0619306 0.205608,-0.0362543 0.139508,-0.0130372 0.0700546,-7.90722e-4 0,0 V 0 C -0.0700546,7.90722e-4 -0.139508,0.0130372 -0.205608,0.0362543 -0.27871,0.0619306 -0.346469,0.100556 -0.40747,0.148307 -0.47576,0.201764 -0.534781,0.265972 -0.584151,0.33726 -0.639803,0.417618 -0.682598,0.506041 -0.713555,0.598744 -0.74851,0.70342 -0.76807,0.812526 -0.774238,0.922701 -0.781192,1.04694 -0.771094,1.17145 -0.74679,1.29348 c 0.027318,0.13716 0.072336,0.2701 0.131592,0.39676 0.066327,0.14179 0.149989,0.2747 0.247078,0.39747 C -0.25994,2.22451 -0.135837,2.34781 0,2.45718 0.150652,2.57847 0.314772,2.68188 0.488038,2.7678 0.679328,2.86266 0.880612,2.93568 1.08758,2.98811 1.31509,3.04575 1.54816,3.07822 1.78266,3.08766 2.03937,3.09799 2.29636,3.0807 2.54982,3.03876 2.82622,2.99303 3.09695,2.91825 3.35863,2.81823 3.64298,2.70954 3.91519,2.57162 4.17251,2.409 4.45119,2.23289 4.71101,2.02871 4.95,1.80165 5.20802,1.55651 5.44048,1.28593 5.64632,0.995598 5.8679,0.683057 6.05756,0.349161 6.21522,0 6.38449,-0.374864 6.5161,-0.765535 6.61109,-1.16571 6.71282,-1.59428 6.7721,-2.03173 6.79116,-2.47178 6.81152,-2.94193 6.7859,-3.41287 6.71774,-3.87849 6.64508,-4.37488 6.52444,-4.86296 6.36048,-5.33708 6.18605,-5.84149 5.9634,-6.32782 5.69839,-6.79108 5.41699,-7.28298 5.08909,-7.74669 4.72164,-8.17812 4.33217,-8.6354 3.9,-9.0544 3.43303,-9.43216 2.93891,-9.83189 2.40801,-10.1837 1.84897,-10.486 1.25839,-10.8054 0.638999,-11.0681 0,-11.2741 c -0.674027,-0.2173 -1.36695,-0.3706 -2.06928,-0.4614 -0.73977,-0.0956 -1.4868,-0.1216 -2.23162,-0.0811 -0.78345,0.0425 -1.56111,0.1583 -2.32385,0.3422 -0.80127,0.1932 -1.58268,0.4607 -2.33576,0.7957 -0.79016,0.3514 -1.54579,0.77563 -2.25949,1.26397 -0.748,0.51178 -1.4468,1.09184 -2.0903,1.73002 -0.6737,0.66808 -1.2839,1.39704 -1.8264,2.17539 -0.5674,0.81395 -1.0582,1.6785 -1.4701,2.58109 -0.4303,0.94293 -0.7728,1.92344 -1.0271,2.92823 -0.2654,1.04869 -0.4337,2.11949 -0.5071,3.19874 -0.0765,1.12537 -0.0494,2.25529 0.0765,3.37619 0.1312,1.16778 0.3692,2.32095 0.7069,3.44647 0.3514,1.1717 0.8093,2.3086 1.3641,3.3987 0.5771,1.1339 1.2565,2.2125 2.0263,3.2254 0.8,1.0527 1.6944,2.0301 2.669,2.9236 1.0121,0.9279 2.10667,1.7615 3.26766,2.4946 1.20484,0.7608 2.47634,1.4103 3.79716,1.945 1.36975,0.5545 2.78697,0.9832 4.23338,1.2858 1.499,0.3136 3.02326,0.4903 4.55409,0.533 1.58548,0.0443 3.17159,-0.0553 4.7398,-0.2927 1.62321,-0.2458 3.22071,-0.6381 4.77471,-1.1673 1.6075,-0.5476 3.162,-1.2394 4.6473,-2.0628 1.5355,-0.8512 2.9908,-1.8394 4.3516,-2.9488 1.4061,-1.1462 2.7056,-2.4171 3.8869,-3.7938 1.22,-1.4217 2.3091,-2.9506 3.2587,-4.5654 0.9802,-1.66686 1.808,-3.41859 2.4786,-5.23227 C 33.3835,3.89332 33.9052,1.9638 34.256,0 c 0.3617,-2.02499 0.5403,-4.07831 0.5392,-6.13534 -0.0011,-2.12012 -0.193,-4.23576 -0.5678,-6.32246 -0.3861,-2.1497 -0.9647,-4.2602 -1.7235,-6.3083 -0.7814,-2.109 -1.7508,-4.1434 -2.8914,-6.0818 -1.174,-1.9952 -2.5248,-3.8808 -4.0317,-5.6381 -1.5504,-1.8081 -3.2599,-3.4733 -5.1043,-4.9803 -1.8969,-1.55 -3.9289,-2.9265 -6.0688,-4.1186 -2.1999,-1.2255 -4.50519,-2.2513 -6.88633,-3.0709 C 5.07436,-43.4981 2.55694,-44.1193 0,-44.5183 c -2.62668,-0.4099 -5.28465,-0.5837 -7.94247,-0.5257 -2.72933,0.0596 -5.44773,0.3634 -8.12413,0.9015 -2.7474,0.5523 -5.4398,1.3494 -8.0475,2.3757 -2.676,1.0531 -5.2523,2.3434 -7.7019,3.85 -2.5129,1.5455 -4.8824,3.3124 -7.0851,5.2749 -2.2588,2.0126 -4.3331,4.2229 -6.2037,6.6006 -1.9178,2.4376 -3.6139,5.0414 -5.0743,7.7776 -1.4968,2.8042 -2.7401,5.7363 -3.7219,8.7595 -1.0059,3.09747 -1.7333,6.27837 -2.1805,9.5042 -0.4581,3.30409 -0.6205,6.64229 -0.4924,9.9755 0.1312,3.4131 0.5666,6.8075 1.2939,10.1448 0.7445,3.4163 1.7921,6.7592 3.1236,9.9922 1.3627,3.3086 3.0175,6.4891 4.9387,9.5078 1.9657,3.0886 4.2025,5.9957 6.6786,8.6923 2.5328,2.7582 5.306,5.2852 8.2826,7.5573 3.0438,2.3234 6.2883,4.3712 9.6919,6.1258 3.4796,1.7939 7.1118,3.2744 10.8517,4.4316 3.82248,1.1826 7.74245,2.0228 11.7129,2.5183 4.05721,0.5063 8.15124,0.6507 12.2344,0.4392 4.1715,-0.2159 8.3152,-0.8024 12.3845,-1.7449 4.1563,-0.9625 8.2186,-2.2926 12.1424,-3.9674 4.0068,-1.7102 7.8536,-3.773 11.4995,-6.1575 3.7223,-2.4345 7.2207,-5.1947 10.4599,-8.2425 3.3062,-3.1109 6.3295,-6.5093 9.0409,-10.1503 2.7669,-3.7157 5.1984,-7.6696 7.2732,-11.8118 2.1168,-4.2262 3.8542,-8.6318 5.1998,-13.1629 C 81.6072,9.52544 82.5668,4.79082 83.1105,0 c 0.5545,-4.88606 0.6743,-9.81149 0.3664,-14.7192 -0.3139,-5.0044 -1.0712,-9.9708 -2.2546,-14.8433 -1.2066,-4.9674 -2.8513,-9.8179 -4.9071,-14.4981 -2.0955,-4.7706 -4.6098,-9.3457 -7.5063,-13.6769 -2.952,-4.4139 -6.2893,-8.5573 -9.9668,-12.3877 -3.7471,-3.903 -7.8327,-7.466 -12.2039,-10.6546 -4.4531,-3.2484 -9.1851,-6.0956 -14.137,-8.5164 C 27.4573,-91.762 22.205,-93.7759 16.808,-95.3231 11.3118,-96.8988 5.68692,-97.9844 0,-98.5763 c -5.79063,-0.6027 -11.623,-0.6912 -17.4299,-0.2738 -5.9119,0.425 -11.7742,1.3727 -17.5211,2.8231 -5.8497,1.4764 -11.5571,3.4678 -17.0593,5.9425 -5.5999,2.5186 -10.9656,5.528 -16.04,8.9853 -5.1637,3.5181 -10.0056,7.4862 -14.476,11.8514 -4.5484,4.4413 -8.6947,9.2763 -12.3983,14.443 -3.7677,5.2562 -7.0624,10.8352 -9.8554,16.668 -2.841,5.9328 -5.151,12.105 -6.913,18.4424 -1.792,6.445 -3.01,13.03565 -3.65,19.6944 -0.651,6.77092 -0.702,13.5859 -0.161,20.3665 0.549,6.8939 1.707,13.7255 3.45,20.4179 1.772,6.8032 4.142,13.4362 7.074,19.826 2.979,6.4949 6.5272,12.7133 10.5939,18.589 4.1329,5.9713 8.7855,11.5654 13.8964,16.7245 5.1934,5.2421 10.84,10.0151 16.868,14.2721 6.1247,4.325 12.6194,8.1 19.4043,11.29 6.8928,3.242 14.0583,5.867 21.4107,7.857 7.4683,2.022 15.10038,3.379 22.8067,4.067 7.82694,0.7 15.7001,0.706 23.529,0.03 7.9505,-0.687 15.8246,-2.074 23.5337,-4.136 7.8279,-2.094 15.4553,-4.875 22.7983,-8.301 7.4553,-3.479 14.5887,-7.609 21.3236,-12.333 6.837,-4.797 13.2374,-10.1875 19.1334,-16.1021 5.985,-6.0037 11.429,-12.524 16.276,-19.4788 4.92,-7.0589 9.207,-14.5381 12.821,-22.3462 3.668,-7.924 6.629,-16.1561 8.86,-24.598 2.264,-8.5662 3.767,-17.31529 4.504,-26.1449 0.747,-8.95869 0.702,-17.9656 -0.123,-26.9174 -0.837,-9.0817 -2.474,-18.0716 -4.88,-26.8685 -2.442,-8.9237 -5.666,-17.6143 -9.624,-25.9761 -1.916,-4.0471 -4.001,-8.0097 -6.247,-11.8784 C 102.894,-133.321 54.6325,-160.6 0,-160.6 c -88.6969,0 -160.6,71.9031 -160.6,160.6 0,34.0645 10.606,65.6519 28.695,91.6404 z" />
    </g>
  </g>
</svg>
